Notre système de revue en revue! Présenter & analyser rOpenSci onboarding
…
* .font150[jq play pour écrire des commandes jq pour dompter le JSON]

* .font150[`jqr` https://github.com/ropensci/jqr]

---

# Résultat : fils de GitHub tissés

.font150[Magie de GitHub V4 + un peu de domptage de données...]

--

```
## # A tibble: 2,521 x 10
##    title created_at          closed_at           body  user  issue package
##    <chr> <dttm>              <dttm>              <chr> <chr> <int> <chr>  
##  1 rrli~ 2015-03-31 00:25:14 2015-04-13 23:26:38 "- 1~ rich~     6 rrlite 
##  2 rrli~ 2015-04-01 17:30:51 2015-04-13 23:26:38 "hey~ scko~     6 rrlite 
##  3 rrli~ 2015-04-01 17:36:03 2015-04-13 23:26:38 "@sc~ kart~     6 rrlite 
##  4 rrli~ 2015-04-02 03:36:09 2015-04-13 23:26:38 "Sur~ jero~     6 rrlite 
##  5 rrli~ 2015-04-02 03:50:43 2015-04-13 23:26:38 "IMO~ gabo~     6 rrlite 
##  6 rrli~ 2015-04-02 03:53:57 2015-04-13 23:26:38 "Ide~ rich~     6 rrlite 
##  7 rrli~ 2015-04-02 18:58:53 2015-04-13 23:26:38 "> H~ kart~     6 rrlite 
##  8 stpl~ 2015-04-08 23:56:17 2015-10-29 14:14:35 "- 1~ Robi~    10 stplanr
##  9 rrli~ 2015-04-10 21:52:39 2015-04-13 23:26:38 "@ri~ stew~     6 rrlite 
## 10 rrli~ 2015-04-10 22:10:48 2015-04-13 23:26:38 "Tha~ rich~     6 rrlite 
## # ... with 2,511 more rows, and 3 more variables: is_review <lgl>,
## #   commenter <chr>, role <chr>
```
…
